HW2/add4.vcd
$date
	Mon Mar 23 19:36:11 2020
$end
$version
	Icarus Verilog
$end
$timescale
	1ps
$end
$scope module testbench_add4 $end
$var wire 1 ! ov $end
$var wire 4 " sum [3:0] $end
$var reg 4 # a [3:0] $end
$var reg 4 $ b [3:0] $end
$var reg 4 % c [3:0] $end
$var reg 1 & clk $end
$var reg 1 ' correct_ov $end
$var reg 4 ( correct_sum [3:0] $end
$var reg 4 ) d [3:0] $end
$var reg 1 * rst $end
$var reg 1 + s4 $end
$var reg 1 , s5 $end
$var reg 33 - test_num [32:0] $end
$scope module DUT $end
$var wire 4 . a [3:0] $end
$var wire 4 / b [3:0] $end
$var wire 4 0 c [3:0] $end
$var wire 4 1 d [3:0] $end
$var reg 1 2 ov $end
$var reg 1 3 s0 $end
$var reg 1 4 s1 $end
$var reg 4 5 sum [3:0] $end
$upscope $end
$upscope $end
$enddefinitions $end
#0
$dumpvars
b0 5
04
03
02
b0 1
b0 0
b0 /
b0 .
b0 -
0,
0+
0*
b0 )
b0 (
0'
0&
b0 %
b0 $
b0 #
b0 "
0!
$end
#5000
b1 5
b1 "
b1 -
b1 #
b1 .
1*
1&
#10000
b1 (
0*
0&
#15000
b10 5
b10 "
b10 -
b10 #
b10 .
1*
1&
#20000
b10 (
0*
0&
#25000
b11 5
b11 "
b11 -
b11 #
b11 .
1*
1&
#30000
b11 (
0*
0&
#35000
b100 5
b100 "
b100 -
b100 #
b100 .
1*
1&
#40000
b100 (
0*
0&
#45000
b11 5
b11 "
b101 -
b101 #
b101 .
1*
1&
#50000
b101 (
0*
0&
#55000
b110 5
b110 "
b110 -
b110 #
b110 .
1*
1&
#60000
b110 (
0*
0&
#65000
b111 5
b111 "
b111 -
b111 #
b111 .
1*
1&
#70000
b111 (
0*
0&
#75000
b1000 5
b1000 "
b1000 -
b1000 #
b1000 .
1*
1&
#80000
b1000 (
0*
0&
#85000
b1001 5
b1001 "
b1001 -
b1001 #
b1001 .
1*
1&
#90000
b1001 (
0*
0&
#95000
b11 5
b11 "
b1010 -
b1010 #
b1010 .
1*
1&
#100000
b1010 (
0*
0&
#105000
b1011 5
b1011 "
b1011 -
b1011 #
b1011 .
1*
1&
#110000
b1011 (
0*
0&
#115000
b1100 5
b1100 "
b1100 -
b1100 #
b1100 .
1*
1&
#120000
b1100 (
0*
0&
#125000
b1101 5
b1101 "
b1101 -
b1101 #
b1101 .
1*
1&
#130000
b1101 (
0*
0&
#135000
b1110 5
b1110 "
b1110 -
b1110 #
b1110 .
1*
1&
#140000
b1110 (
0*
0&
#145000
b1111 5
b1111 "
b1111 -
b1111 #
b1111 .
1*
1&
#150000
b1111 (
0*
0&
#155000
b1 5
b1 "
b1 $
b1 /
b10000 -
b0 #
b0 .
1*
1&
#160000
b1 (
0*
0&
#165000
b10 5
b10 "
b10001 -
b1 #
b1 .
1*
1&
#170000
b10 (
0*
0&
#175000
b11 5
b11 "
b10010 -
b10 #
b10 .
1*
1&
#180000
b11 (
0*
0&
#185000
b100 5
b100 "
b10011 -
b11 #
b11 .
1*
1&
#190000
b100 (
0*
0&
#195000
b101 5
b101 "
b10100 -
b100 #
b100 .
1*
1&
#200000
b101 (
0*
0&
#205000
b11 5
b11 "
b10101 -
b101 #
b101 .
1*
1&
